Forbes 2019 List
…
We’ll access forbes list through forbesListR package. For more details see https://github.com/abresler/forbesListR.

Let’s begin by calling the Forbes 400 list through

library(forbesListR)
library(dplyr)
forbes400_values <- 
  get_year_forbes_list_data(list = "Forbes 400", year = 2018)

forbes400_values %>% 
  mutate(`full name` = paste(name, last_name)) %>% 
  rename(`net worth (in million USD)` = net_worth.millions) %>% 
  select(`full name`, `net worth (in million USD)`, age, industry, headquarters)
## # A tibble: 420 x 5
##    `full name`       `net worth (in milli…   age industry      headquarters
##    <chr>                             <dbl> <int> <chr>         <chr>       
##  1 Jeff Bezos Bezos                 160000    55 Technology    Seattle, WA 
##  2 Bill Gates Gates                  97000    63 Technology    Medina, WA  
##  3 Warren Buffett B…                 88300    88 Finance and … Omaha, NE   
##  4 Mark Zuckerberg …                 61000    35 Technology    Palo Alto, …
##  5 Larry Ellison El…                 58400    74 Technology    Woodside, CA
##  6 Larry Page Page                   53800    46 Technology    Palo Alto, …
##  7 Charles Koch Koch                 53500    83 Diversified   Wichita, KS 
##  8 David Koch Koch                   53500    79 Diversified   New York, NY
##  9 Sergey Brin Brin                  52400    45 Technology    Los Altos, …
## 10 Michael Bloomber…                 51800    77 Media & Ente… New York, NY
## # … with 410 more rows
…
